\relax 
\providecommand\hyper@newdestlabel[2]{}
\providecommand\HyperFirstAtBeginDocument{\AtBeginDocument}
\HyperFirstAtBeginDocument{\ifx\hyper@anchor\@undefined
\global\let\oldcontentsline\contentsline
\gdef\contentsline#1#2#3#4{\oldcontentsline{#1}{#2}{#3}}
\global\let\oldnewlabel\newlabel
\gdef\newlabel#1#2{\newlabelxx{#1}#2}
\gdef\newlabelxx#1#2#3#4#5#6{\oldnewlabel{#1}{{#2}{#3}}}
\AtEndDocument{\ifx\hyper@anchor\@undefined
\let\contentsline\oldcontentsline
\let\newlabel\oldnewlabel
\fi}
\fi}
\global\let\hyper@last\relax 
\gdef\HyperFirstAtBeginDocument#1{#1}
\providecommand\HyField@AuxAddToFields[1]{}
\providecommand\HyField@AuxAddToCoFields[2]{}
\babel@aux{italian}{}
\babel@aux{italian}{}
\@writefile{toc}{\contentsline {section}{\numberline {1}Introduzione e specifiche}{1}{section.1}}
\newlabel{sec:intro}{{1}{1}{Introduzione e specifiche}{section.1}{}}
\@writefile{toc}{\contentsline {section}{\numberline {2}Tabelle e grafici}{1}{section.2}}
\newlabel{sec:plots}{{2}{1}{Tabelle e grafici}{section.2}{}}
\@writefile{lot}{\contentsline {table}{\numberline {1}{\ignorespaces Prestazioni delle run secondo le misure di MAP, Rprec e Precision at 10\relax }}{1}{table.caption.1}}
\@writefile{lof}{\contentsline {figure}{\numberline {1}{\ignorespaces Plot della AP per topic nei 4 casi considerati.\relax }}{1}{figure.caption.2}}
\providecommand*\caption@xref[2]{\@setref\relax\@undefined{#1}}
\newlabel{fig:map}{{1}{1}{Plot della AP per topic nei 4 casi considerati.\relax }{figure.caption.2}{}}
\@writefile{lof}{\contentsline {figure}{\numberline {2}{\ignorespaces Risultati del test ANOVA-1 sulla misura di \textit  {average precision}.\relax }}{2}{figure.caption.3}}
\newlabel{fig:map_anova}{{2}{2}{Risultati del test ANOVA-1 sulla misura di \textit {average precision}.\relax }{figure.caption.3}{}}
\@writefile{toc}{\contentsline {section}{\numberline {3}Repository contenente il codice}{2}{section.3}}
\newlabel{sec:repo}{{3}{2}{Repository contenente il codice}{section.3}{}}
