map                   	351	0.0117
map                   	352	0.0023
map                   	353	0.0372
map                   	354	0.0264
map                   	355	0.0607
map                   	356	0.0004
map                   	357	0.0726
map                   	358	0.0214
map                   	359	0.0219
map                   	360	0.0416
map                   	361	0.2992
map                   	362	0.0187
map                   	363	0.0389
map                   	364	0.5428
map                   	365	0.0244
map                   	366	0.0234
map                   	367	0.0548
map                   	368	0.1431
map                   	369	0.3316
map                   	370	0.1492
map                   	371	0.0321
map                   	372	0.0104
map                   	373	0.0109
map                   	374	0.1680
map                   	375	0.0441
map                   	376	0.0011
map                   	377	0.0602
map                   	378	0.0023
map                   	379	0.2621
map                   	380	0.0040
map                   	381	0.0058
map                   	382	0.0907
map                   	383	0.0181
map                   	384	0.1075
map                   	385	0.0306
map                   	386	0.0062
map                   	387	0.0907
map                   	388	0.0231
map                   	389	0.0015
map                   	390	0.0201
map                   	391	0.0076
map                   	392	0.1401
map                   	393	0.0112
map                   	394	0.0010
map                   	395	0.1843
map                   	396	0.0346
map                   	397	0.0011
map                   	398	0.0122
map                   	399	0.0114
map                   	400	0.0987
map                   	all	0.0683
