P_10                  	351	0.0000
P_10                  	352	0.0000
P_10                  	353	0.3000
P_10                  	354	0.0000
P_10                  	355	0.3000
P_10                  	356	0.0000
P_10                  	357	0.1000
P_10                  	358	0.0000
P_10                  	359	0.0000
P_10                  	360	0.0000
P_10                  	361	0.3000
P_10                  	362	0.0000
P_10                  	363	0.2000
P_10                  	364	0.7000
P_10                  	365	0.1000
P_10                  	366	0.2000
P_10                  	367	0.0000
P_10                  	368	0.2000
P_10                  	369	0.4000
P_10                  	370	0.7000
P_10                  	371	0.1000
P_10                  	372	0.0000
P_10                  	373	0.0000
P_10                  	374	0.0000
P_10                  	375	0.1000
P_10                  	376	0.0000
P_10                  	377	0.1000
P_10                  	378	0.0000
P_10                  	379	0.5000
P_10                  	380	0.0000
P_10                  	381	0.0000
P_10                  	382	0.1000
P_10                  	383	0.0000
P_10                  	384	0.2000
P_10                  	385	0.1000
P_10                  	386	0.0000
P_10                  	387	0.2000
P_10                  	388	0.1000
P_10                  	389	0.0000
P_10                  	390	0.1000
P_10                  	391	0.0000
P_10                  	392	0.6000
P_10                  	393	0.1000
P_10                  	394	0.0000
P_10                  	395	0.3000
P_10                  	396	0.0000
P_10                  	397	0.0000
P_10                  	398	0.0000
P_10                  	399	0.1000
P_10                  	400	0.5000
P_10                  	all	0.1340
