map                   	351	0.3805
map                   	352	0.0000
map                   	353	0.2238
map                   	354	0.0080
map                   	355	0.0716
map                   	356	0.0060
map                   	357	0.0000
map                   	358	0.2865
map                   	359	0.0325
map                   	360	0.1742
map                   	361	0.2827
map                   	362	0.0858
map                   	363	0.0546
map                   	364	0.5145
map                   	365	0.6599
map                   	366	0.1596
map                   	367	0.0498
map                   	368	0.3362
map                   	369	0.1608
map                   	370	0.0001
map                   	371	0.0141
map                   	372	0.1843
map                   	373	0.0050
map                   	374	0.1847
map                   	375	0.0817
map                   	376	0.0004
map                   	377	0.1814
map                   	378	0.0000
map                   	379	0.0514
map                   	380	0.1467
map                   	381	0.0360
map                   	382	0.0345
map                   	383	0.0215
map                   	384	0.0002
map                   	385	0.1614
map                   	386	0.0133
map                   	387	0.1174
map                   	388	0.2232
map                   	389	0.0134
map                   	390	0.1628
map                   	391	0.0000
map                   	392	0.0165
map                   	393	0.0271
map                   	394	0.0025
map                   	395	0.0065
map                   	396	0.2988
map                   	397	0.3290
map                   	398	0.0062
map                   	399	0.0591
map                   	400	0.3582
map                   	all	0.1245
